%YAML 1.1
%TAG !u! tag:unity3d.com,2011:
--- !u!1045 &1
EditorBuildSettings:
  m_ObjectHideFlags: 0
  serializedVersion: 2
  m_Scenes:
  - enabled: 1
    path: Assets/Scenes/Menu.unity
    guid: 550bd2538a4285148939af385262d4aa
  - enabled: 1
    path: Assets/Scenes/Fase1.unity
    guid: 9fc0d4010bbf28b4594072e72b8655ab
  - enabled: 1
    path: Assets/Scenes/Fase2.unity
    guid: 331b30a04b122e8499ef06b6844eebdc
  - enabled: 1
    path: Assets/Scenes/Fase3.unity
    guid: 14acabe4a5e154244a09bf9ed10e35d4
  m_configObjects: {}
